*Jennifer Hachigian* -Content


Edges_Demo > Scenes > CelLookEdges-Bubbles

Edges-Inking Tips > Scenes > 01_SubDLevelsMatter
"                          " 02_TheFiveBasicEdgeTypes
"                          " 03_Edges-NodeEditor
"                          " 04_EdgesMustExistInOrderToGetTraced
"                          " 05_Raytracing
"                          " 06_AdvancedCamera

Inking_Demo > Scenes > Inking_Demo


All Rights Reserved.

